<?xml version="1.0" encoding="UTF-8" standalone="no"?>
<!-- Created with Inkscape (http://www.inkscape.org/) -->

<svg
   width="48"
   height="48"
   viewBox="0 0 12.7 12.7"
   version="1.1"
   id="svg5"
   inkscape:version="1.1.2 (0a00cf5339, 2022-02-04)"
   sodipodi:docname="drawing.svg"
   xmlns:inkscape="http://www.inkscape.org/namespaces/inkscape"
   xmlns:sodipodi="http://sodipodi.sourceforge.net/DTD/sodipodi-0.dtd"
   xmlns="http://www.w3.org/2000/svg"
   xmlns:svg="http://www.w3.org/2000/svg">
  <sodipodi:namedview
     id="namedview7"
     pagecolor="#ffffff"
     bordercolor="#666666"
     borderopacity="1.0"
     inkscape:pageshadow="2"
     inkscape:pageopacity="1"
     inkscape:pagecheckerboard="0"
     inkscape:document-units="mm"
     showgrid="false"
     inkscape:lockguides="false"
     units="px"
     inkscape:zoom="16.229167"
     inkscape:cx="24"
     inkscape:cy="24"
     inkscape:window-width="1072"
     inkscape:window-height="1036"
     inkscape:window-x="0"
     inkscape:window-y="20"
     inkscape:window-maximized="1"
     inkscape:current-layer="layer1">
    <inkscape:grid
       type="xygrid"
       id="grid824" />
  </sodipodi:namedview>
  <defs
     id="defs2">
    <inkscape:path-effect
       effect="perspective-envelope"
       up_left_point="2.1960868,2.098894"
       up_right_point="7.4877533,2.8926322"
       down_left_point="2.3765569,10.036275"
       down_right_point="11.539853,10.036275"
       id="path-effect2615"
       is_visible="true"
       lpeversion="1"
       deform_type="perspective"
       horizontal_mirror="false"
       vertical_mirror="false"
       overflow_perspective="false" />
    <inkscape:path-effect
       effect="knot"
       id="path-effect2611"
       is_visible="false"
       lpeversion="1"
       switcher_size="15"
       interruption_width="3"
       prop_to_stroke_width="true"
       add_stroke_width="inkscape_1.0_and_up"
       both="false"
       inverse_width="false"
       add_other_stroke_width="inkscape_1.0_and_up"
       crossing_points_vector="" />
    <inkscape:path-effect
       effect="perspective-envelope"
       up_left_point="1.1568329,2.0988941"
       up_right_point="6.4484993,2.8926323"
       down_left_point="1.337303,10.036275"
       down_right_point="10.500599,10.036275"
       id="path-effect2588"
       is_visible="true"
       lpeversion="1"
       deform_type="perspective"
       horizontal_mirror="false"
       vertical_mirror="false"
       overflow_perspective="false" />
    <inkscape:path-effect
       effect="knot"
       id="path-effect2584"
       is_visible="false"
       lpeversion="1"
       switcher_size="15"
       interruption_width="3"
       prop_to_stroke_width="true"
       add_stroke_width="inkscape_1.0_and_up"
       both="false"
       inverse_width="false"
       add_other_stroke_width="inkscape_1.0_and_up"
       crossing_points_vector="" />
    <inkscape:path-effect
       effect="perspective-envelope"
       up_left_point="0.11757857,2.098894"
       up_right_point="5.409245,2.8926322"
       down_left_point="0.29804867,10.036275"
       down_right_point="9.4613449,10.036275"
       id="path-effect2561"
       is_visible="true"
       lpeversion="1"
       deform_type="perspective"
       horizontal_mirror="false"
       vertical_mirror="false"
       overflow_perspective="false" />
    <inkscape:path-effect
       effect="knot"
       id="path-effect2557"
       is_visible="false"
       lpeversion="1"
       switcher_size="15"
       interruption_width="3"
       prop_to_stroke_width="true"
       add_stroke_width="inkscape_1.0_and_up"
       both="false"
       inverse_width="false"
       add_other_stroke_width="inkscape_1.0_and_up"
       crossing_points_vector="" />
    <inkscape:path-effect
       effect="perspective-envelope"
       up_left_point="3.2353413,2.098894"
       up_right_point="8.5270077,2.8926322"
       down_left_point="3.4158114,10.036275"
       down_right_point="12.579107,10.036275"
       id="path-effect2314"
       is_visible="true"
       lpeversion="1"
       deform_type="perspective"
       horizontal_mirror="false"
       vertical_mirror="false"
       overflow_perspective="false" />
    <inkscape:path-effect
       effect="knot"
       id="path-effect2120"
       is_visible="false"
       lpeversion="1"
       switcher_size="15"
       interruption_width="3"
       prop_to_stroke_width="true"
       add_stroke_width="inkscape_1.0_and_up"
       both="false"
       inverse_width="false"
       add_other_stroke_width="inkscape_1.0_and_up"
       crossing_points_vector="" />
    <inkscape:path-effect
       effect="perspective-envelope"
       up_left_point="1.5033868,1.4334345"
       up_right_point="10.666683,1.4334345"
       down_left_point="1.5033868,9.2604167"
       down_right_point="10.666683,9.2604167"
       id="path-effect1625"
       is_visible="true"
       lpeversion="1"
       deform_type="perspective"
       horizontal_mirror="false"
       vertical_mirror="false"
       overflow_perspective="false" />
    <inkscape:path-effect
       effect="knot"
       id="path-effect2120-3"
       is_visible="false"
       lpeversion="1"
       switcher_size="15"
       interruption_width="3"
       prop_to_stroke_width="true"
       add_stroke_width="inkscape_1.0_and_up"
       both="false"
       inverse_width="false"
       add_other_stroke_width="inkscape_1.0_and_up"
       crossing_points_vector="" />
    <inkscape:path-effect
       effect="perspective-envelope"
       up_left_point="1.3229167,1.3229224"
       up_right_point="6.6145831,2.1166606"
       down_left_point="1.5033868,9.260304"
       down_right_point="10.666683,9.260304"
       id="path-effect2314-6"
       is_visible="true"
       lpeversion="1"
       deform_type="perspective"
       horizontal_mirror="false"
       vertical_mirror="false"
       overflow_perspective="false" />
    <inkscape:path-effect
       effect="knot"
       id="path-effect2120-5"
       is_visible="false"
       lpeversion="1"
       switcher_size="15"
       interruption_width="3"
       prop_to_stroke_width="true"
       add_stroke_width="inkscape_1.0_and_up"
       both="false"
       inverse_width="false"
       add_other_stroke_width="inkscape_1.0_and_up"
       crossing_points_vector="" />
    <inkscape:path-effect
       effect="perspective-envelope"
       up_left_point="1.3229167,1.3229224"
       up_right_point="6.6145831,2.1166606"
       down_left_point="1.5033868,9.260304"
       down_right_point="10.666683,9.260304"
       id="path-effect2314-3"
       is_visible="true"
       lpeversion="1"
       deform_type="perspective"
       horizontal_mirror="false"
       vertical_mirror="false"
       overflow_perspective="false" />
    <inkscape:path-effect
       effect="knot"
       id="path-effect2120-6"
       is_visible="false"
       lpeversion="1"
       switcher_size="15"
       interruption_width="3"
       prop_to_stroke_width="true"
       add_stroke_width="inkscape_1.0_and_up"
       both="false"
       inverse_width="false"
       add_other_stroke_width="inkscape_1.0_and_up"
       crossing_points_vector="" />
    <inkscape:path-effect
       effect="perspective-envelope"
       up_left_point="1.3229167,1.3229224"
       up_right_point="6.6145831,2.1166606"
       down_left_point="1.5033868,9.260304"
       down_right_point="10.666683,9.260304"
       id="path-effect2314-2"
       is_visible="true"
       lpeversion="1"
       deform_type="perspective"
       horizontal_mirror="false"
       vertical_mirror="false"
       overflow_perspective="false" />
  </defs>
  <g
     inkscape:label="Layer 1"
     inkscape:groupmode="layer"
     id="layer1">
    <g
       id="g6588"
       style="fill:#00ccff">
      <path
         d="m 6.09069,2.7349423 c 1.0967562,0.1599595 2.2163208,1.211438 2.8458517,2.4933495 0.7765157,1.5812161 0.8019196,3.1730572 0.2451081,4.612172 l 0.1311455,0.1958112 h 2.7178437 l -0.463546,-1.7841286 -0.241974,-0.00968 0.12783,0.832695 -1.293353,-0.02781 C 10.538335,8.0321088 10.475517,6.7019411 9.7221971,5.336002 8.7916903,3.6487821 7.2257737,2.69745 6.0206488,2.5166839 4.7544254,2.3267532 3.4764149,2.9319101 3.5575467,4.71193 3.6254579,6.2018942 4.6019095,7.7712751 5.8521264,8.9547298 L 4.2079747,8.9193773 3.7041667,7.9375002 3.3677861,7.9240394 l 0.8305818,2.1122336 3.3223326,0 0.00915,-0.202697 C 5.8842459,8.2655835 4.7228017,6.4627646 4.5079652,4.7773267 4.337647,3.4411443 4.9434404,2.5676184 6.09069,2.7349423 Z"
         id="path1728"
         style="fill:#00ccff;stroke-width:0.3818"
         inkscape:path-effect="#path-effect2120;#path-effect2314"
         inkscape:original-d="m 7.9978411,2.6106802 c 1.9052018,0 3.0746679,1.5798818 3.0746679,3.3025557 0,1.6776217 -0.939238,3.0341517 -2.2324083,4.0069733 l 0.061471,0.1160668 h 3.0219773 l 0.655558,-1.2584074 h -0.318426 l -0.416928,0.624622 h -1.550888 c 1.072869,-0.767796 1.967816,-1.97237 1.967816,-3.4537476 0,-2.3648587 -2.118629,-3.7393326 -4.2628399,-3.7393326 -2.144593,0 -4.262078,1.3744739 -4.262078,3.7393326 0,1.4813776 0.8945667,2.6859516 1.9670543,3.4537476 H 4.1515476 L 3.7353813,8.7778686 H 3.4158114 L 4.0721323,10.036275 H 7.0937291 L 7.1559631,9.9202082 C 5.8624114,8.9473876 4.9224099,7.5908576 4.9224099,5.9132359 c 0,-1.7226739 1.1698475,-3.3025557 3.0754312,-3.3025557 z" />
      <path
         d="m 2.9729271,2.7349422 c 1.0967562,0.1599595 2.2163206,1.2114379 2.8458515,2.4933494 0.7765158,1.5812162 0.8019198,3.1730573 0.2451086,4.6121721 l 0.1311455,0.1958113 2.7178442,0 L 8.4493307,8.2521463 8.2073569,8.2424634 8.3351857,9.0751583 7.0418334,9.0473487 C 7.4205719,8.0321087 7.3577541,6.701941 6.6044345,5.3360019 5.6739277,3.6487821 4.1080109,2.69745 2.9028859,2.5166839 1.6366625,2.3267532 0.35865219,2.93191 0.43978392,4.7119299 0.50769518,6.2018941 1.4841467,7.771275 2.7343636,8.9547297 L 1.0902119,8.9193772 0.58640398,7.9375 0.25002333,7.9240393 1.0806051,10.036273 l 3.3223328,0 0.00915,-0.2026971 C 2.766483,8.2655834 1.6050389,6.4627645 1.3902024,4.7773266 1.2198841,3.4411442 1.8256776,2.5676184 2.9729271,2.7349422 Z"
         id="path1728-7"
         style="fill:#00ccff;fill-opacity:0.10352027;stroke-width:0.3818"
         inkscape:path-effect="#path-effect2557;#path-effect2561"
         inkscape:original-d="m 4.8800784,2.6106802 c 1.9052018,0 3.0746676,1.5798818 3.0746676,3.3025557 0,1.6776217 -0.9392379,3.0341517 -2.232408,4.0069733 L 5.783809,10.036276 H 8.8057869 L 9.4613449,8.7778686 H 9.1429189 L 8.72599,9.4024906 H 7.1751022 c 1.0728692,-0.767796 1.9678167,-1.97237 1.9678167,-3.4537476 0,-2.3648587 -2.1186293,-3.7393326 -4.2628405,-3.7393326 -2.1445931,0 -4.26207803,1.3744739 -4.26207803,3.7393326 0,1.4813776 0.89456663,2.6859516 1.96705423,3.4537476 H 1.0337848 L 0.61761857,8.7778686 H 0.29804867 L 0.95436954,10.036275 H 3.9759664 L 4.0382004,9.9202082 C 2.7446486,8.9473876 1.8046471,7.5908576 1.8046471,5.9132359 c 0,-1.7226739 1.1698476,-3.3025557 3.0754313,-3.3025557 z" />
      <path
         d="M 4.0121818,2.7349424 C 5.1089379,2.8949019 6.2285025,3.9463803 6.8580335,5.2282918 7.6345491,6.8095077 7.659953,8.4013487 7.1031419,9.8404638 L 7.2342865,10.036275 H 9.9521311 L 9.4885847,8.2521461 9.2466109,8.2424631 9.3744397,9.075158 8.081088,9.0473484 C 8.4598271,8.0321086 8.3970089,6.7019409 7.6436894,5.3360021 6.7131825,3.6487823 5.1472659,2.6974502 3.9421406,2.5166841 2.6759171,2.3267534 1.3979065,2.9319101 1.4790383,4.71193 1.5469495,6.2018939 2.5234012,7.7712748 3.7736182,8.9547294 L 2.1294664,8.9193769 1.6256583,7.9374998 1.2892777,7.924039 l 0.8305819,2.112234 3.322333,0 0.00915,-0.202697 C 3.8057377,8.2655832 2.6442934,6.4627643 2.4294569,4.7773268 2.2591387,3.4411444 2.8649321,2.5676185 4.0121818,2.7349424 Z"
         id="path1728-5"
         style="fill:#00ccff;fill-opacity:0.29958791;stroke-width:0.3818"
         inkscape:path-effect="#path-effect2584;#path-effect2588"
         inkscape:original-d="m 5.9193327,2.6106803 c 1.9052015,0 3.0746675,1.5798818 3.0746675,3.3025557 0,1.6776214 -0.939238,3.0341514 -2.232408,4.0069732 l 0.06147,0.1160668 h 3.021978 L 10.500598,8.7778684 h -0.318426 l -0.4169288,0.624622 h -1.550887 c 1.07287,-0.767796 1.9678168,-1.97237 1.9678168,-3.4537473 0,-2.3648587 -2.1186288,-3.7393326 -4.2628403,-3.7393326 -2.144593,0 -4.262078,1.3744739 -4.262078,3.7393326 0,1.4813773 0.8945667,2.6859513 1.9670543,3.4537473 H 2.0730392 L 1.6568729,8.7778684 H 1.337303 L 1.9936239,10.036275 H 5.0152207 L 5.0774547,9.9202082 C 3.783903,8.9473874 2.8439015,7.5908574 2.8439015,5.913236 c 0,-1.7226739 1.1698475,-3.3025557 3.0754312,-3.3025557 z" />
      <path
         d="m 5.0514355,2.7349423 c 1.096756,0.1599594 2.2163204,1.2114379 2.8458513,2.4933494 0.7765157,1.5812161 0.8019192,3.1730559 0.2451086,4.6121721 l 0.1311445,0.1958112 h 2.7178441 l -0.463545,-1.7841287 -0.241974,-0.00968 0.127829,0.8326949 -1.2933526,-0.02781 C 9.4990804,8.0321088 9.4362623,6.701941 8.6829428,5.336002 7.7524359,3.6487821 6.1865195,2.69745 4.9813943,2.5166839 3.7151709,2.3267532 2.4371604,2.93191 2.5182922,4.7119299 2.5862034,6.2018941 3.5626551,7.771275 4.812872,8.9547297 L 3.1687203,8.9193773 2.6649122,7.9375001 2.3285316,7.9240393 l 0.8305819,2.1122337 3.3223327,0 0.00915,-0.202697 C 4.8449912,8.265582 3.6835473,6.4627645 3.4687108,4.7773267 3.2983925,3.4411443 3.9041859,2.5676184 5.0514355,2.7349423 Z"
         id="path1728-9"
         style="fill:#00ccff;fill-opacity:0.49745187;stroke-width:0.3818"
         inkscape:path-effect="#path-effect2611;#path-effect2615"
         inkscape:original-d="m 6.9585867,2.6106802 c 1.9052015,0 3.0746673,1.5798818 3.0746673,3.3025557 0,1.6776217 -0.9392378,3.0341507 -2.2324078,4.0069733 l 0.06147,0.1160668 h 3.0219778 l 0.655559,-1.2584074 h -0.318426 l -0.416929,0.624622 H 9.2536102 c 1.0728698,-0.767796 1.9678168,-1.97237 1.9678168,-3.4537476 0,-2.3648587 -2.1186288,-3.7393326 -4.2628403,-3.7393326 -2.144593,0 -4.2620781,1.3744739 -4.2620781,3.7393326 0,1.4813776 0.8945668,2.6859516 1.9670544,3.4537476 H 3.1122932 L 2.6961268,8.7778686 H 2.3765569 l 0.656321,1.2584064 H 6.0544747 L 6.1167087,9.9202082 C 4.823157,8.9473866 3.8831555,7.5908576 3.8831555,5.9132359 c 0,-1.7226739 1.1698475,-3.3025557 3.0754312,-3.3025557 z" />
    </g>
  </g>
</svg>
